{
  "project_info": {
    "project_number": "564497477022",
    "firebase_url": "https://testersaja-53884-default-rtdb.asia-southeast1.firebasedatabase.app",
    "databaseURL": "https://testersaja-53884-default-rtdb.asia-southeast1.firebasedatabase.app",
    "project_id": "testersaja-53884",
    "storage_bucket": "testersaja-53884.appspot.com"
  },
  "client": [
    {
      "client_info": {
        "mobilesdk_app_id": "1:564497477022:android:271f6fd643a517e30f7a8f",
        "android_client_info": {
          "package_name": "com.example.corrisa_beach"
        }
      },
      "oauth_client": [
        {
          "client_id": "564497477022-f5d9un0cv047j0v3odu6dk5c2m468udu.apps.googleusercontent.com",
          "client_type": 3
        }
      ],
      "api_key": [
        {
          "current_key": "AIzaSyDyUe7kHKYzzWR86jHyGb0rpRfyFEijzd0"
        }
      ],
      "services": {
        "appinvite_service": {
          "other_platform_oauth_client": [
            {
              "client_id": "564497477022-f5d9un0cv047j0v3odu6dk5c2m468udu.apps.googleusercontent.com",
              "client_type": 3
            }
          ]
        }
      }
    }
  ],
  "configuration_version": "1"
}